(footprint "ST_SPBTLE" (version 20211014) (generator pcbnew)
  (layer "F.Cu")
  (tedit 5A030172)
  (descr "Bluetooth Low Energy Module")
  (tags "ble module st bluetooth")
  (attr smd)
  (fp_text reference "REF**" (at 4.55 -9.61) (layer "F.SilkS")
    (effects (font (size 1 1) (thickness 0.15)))
    (tstamp cbbb41e6-2a71-4afb-a354-d165aafc6451)
  )
  (fp_text value "ST_SPBTLE" (at 3 4) (layer "F.Fab")
    (effects (font (size 1 1) (thickness 0.15)))
    (tstamp 035ad05b-5644-481e-b2e0-adcfd67b5006)
  )
  (fp_text user "on any layer" (at -4 -11) (layer "Cmts.User")
    (effects (font (size 0.8 0.8) (thickness 0.08)))
    (tstamp 13460d63-03b1-4012-bd2e-0a5d164e8683)
  )
  (fp_text user "No copper" (at -3.95 -12.11) (layer "Cmts.User")
    (effects (font (size 0.8 0.8) (thickness 0.08)))
    (tstamp 24d67acf-224c-4c25-8bee-22447242fa2b)
  )
  (fp_text user "${REFERENCE}" (at 0 -2.86) (layer "F.Fab")
    (effects (font (size 1 1) (thickness 0.1)))
    (tstamp 97596b1d-007e-4ffe-a386-4bd90bebb91e)
  )
  (fp_line (start -6.85 -4.11) (end -6.85 -8.71) (layer "F.SilkS") (width 0.12) (tstamp 061d6dd7-497a-45cd-a7ff-eaf706588847))
  (fp_line (start 6.85 -8.71) (end 6.85 -4.01) (layer "F.SilkS") (width 0.12) (tstamp 4226e842-13bd-460b-b4c5-47f1398c2697))
  (fp_line (start 6.85 2.99) (end 6.85 2.59) (layer "F.SilkS") (width 0.12) (tstamp 48f85b1c-1865-4271-a901-f4c954c9af1d))
  (fp_line (start -6.85 2.59) (end -6.85 2.99) (layer "F.SilkS") (width 0.12) (tstamp 4be30f27-4f98-4b1e-a3a7-a7fb861dd232))
  (fp_line (start -6.85 -4.01) (end -7.55 -4.01) (layer "F.SilkS") (width 0.12) (tstamp 5c74db56-1132-4151-a412-62e262ef9354))
  (fp_line (start -6.85 -8.71) (end 6.85 -8.71) (layer "F.SilkS") (width 0.12) (tstamp 6871836f-9b0e-4bea-a1bd-4a2306faef76))
  (fp_line (start -3.65 2.99) (end -3.55 2.99) (layer "F.SilkS") (width 0.12) (tstamp 865b5b0e-d829-40e1-bb07-a4dcf50b7b47))
  (fp_line (start -1.95 2.99) (end 6.85 2.99) (layer "F.SilkS") (width 0.12) (tstamp 9c56aba0-6083-4155-b7ec-d712ce59a238))
  (fp_line (start -6.85 2.99) (end -3.65 2.99) (layer "F.SilkS") (width 0.12) (tstamp a4e58ffe-cf2a-47a6-8903-eabee403f286))
  (fp_line (start -6.85 -4.11) (end -6.85 -4.01) (layer "F.SilkS") (width 0.12) (tstamp cf2aa551-9a9f-4f79-bdac-a1008ec4dbaf))
  (fp_line (start 2.05 -13.11) (end 2.05 -1.11) (layer "Dwgs.User") (width 0.05) (tstamp 1b0cc7a2-99bb-4e88-ac09-9b2173ecb75a))
  (fp_line (start -5.95 -6.11) (end -5.95 -8.11) (layer "Dwgs.User") (width 0.05) (tstamp 1b22710e-75aa-4f8f-a989-8fc7d91b174b))
  (fp_line (start 2.05 -13.11) (end -9.95 -1.11) (layer "Dwgs.User") (width 0.05) (tstamp 6592c918-1dc8-431f-b19f-de6f3905da2a))
  (fp_line (start -5.95 -8.11) (end -1.95 -8.11) (layer "Dwgs.User") (width 0.05) (tstamp 9bf02cc5-5200-47ce-97b5-5d7d8c5ba8f7))
  (fp_line (start 2.05 -1.11) (end -9.95 -1.11) (layer "Dwgs.User") (width 0.05) (tstamp c61600b9-0a85-41c1-9c27-f9cdcb02e018))
  (fp_line (start 2.05 -13.11) (end -9.95 -13.11) (layer "Dwgs.User") (width 0.05) (tstamp d27f66af-dd8a-4289-bb11-55997a0a71c3))
  (fp_line (start -9.95 -13.11) (end 2.05 -1.11) (layer "Dwgs.User") (width 0.05) (tstamp defe404e-e4e1-4afb-98ed-80b3ddf8ad25))
  (fp_line (start -1.95 -6.11) (end -5.95 -6.11) (layer "Dwgs.User") (width 0.05) (tstamp e82149c6-c8e1-4347-98b4-8317a070c4e8))
  (fp_line (start -1.95 -8.11) (end -1.95 -6.11) (layer "Dwgs.User") (width 0.05) (tstamp edf23926-5ae1-4f9d-8e0d-2ecf77cdf1bd))
  (fp_line (start -9.95 -1.11) (end -9.95 -13.11) (layer "Dwgs.User") (width 0.05) (tstamp fe0473fa-9324-4811-93be-dc2eebf62564))
  (fp_line (start 7.8 -8.86) (end -7.8 -8.86) (layer "F.CrtYd") (width 0.05) (tstamp 1029e621-66cd-4df6-9e75-532239782607))
  (fp_line (start 7.8 -8.86) (end 7.8 3.94) (layer "F.CrtYd") (width 0.05) (tstamp b9a4e1dd-f192-4490-94f6-95a8700266bc))
  (fp_line (start -7.8 3.94) (end -7.8 -8.86) (layer "F.CrtYd") (width 0.05) (tstamp d8e8ae85-053b-4fc5-8b04-6515e49237ef))
  (fp_line (start -7.8 3.94) (end 7.8 3.94) (layer "F.CrtYd") (width 0.05) (tstamp fb7d1bf8-bd98-4b46-a8db-bc867480602a))
  (fp_line (start 6.75 -8.61) (end -6.75 -8.61) (layer "F.Fab") (width 0.1) (tstamp 190f6753-2af5-45f4-a0ef-cd622d6974bb))
  (fp_line (start -6.75 -2.16) (end -5.75 -3.16) (layer "F.Fab") (width 0.1) (tstamp 3a1357d6-4b15-4d81-919a-a2d1406c0fe8))
  (fp_line (start -6.75 -2.16) (end -6.75 2.89) (layer "F.Fab") (width 0.1) (tstamp 3f174056-f573-4cec-bc14-3fbf01c66fbd))
  (fp_line (start 6.75 2.89) (end 6.75 -8.61) (layer "F.Fab") (width 0.1) (tstamp 5d1c2700-0aad-4af6-96b9-75b60c93a71b))
  (fp_line (start -5.75 -3.16) (end -6.75 -4.16) (layer "F.Fab") (width 0.1) (tstamp 89f5cb57-820b-4c05-a443-731671eb121c))
  (fp_line (start -6.75 -8.61) (end -6.75 -4.16) (layer "F.Fab") (width 0.1) (tstamp b82a9ca8-5464-48f8-b4cd-b64accedeeaa))
  (fp_line (start -6.75 2.89) (end 6.75 2.89) (layer "F.Fab") (width 0.1) (tstamp fb10bbf0-80df-4833-a21c-1d07006ab5d1))
  (pad "1" smd rect (at -6.75 -3.19) (size 1.6 1) (layers "F.Cu" "F.Paste" "F.Mask") (tstamp 16020c8b-f60e-4e2c-b891-04098d1450ef))
  (pad "2" smd rect (at -6.75 -1.92) (size 1.6 1) (layers "F.Cu" "F.Paste" "F.Mask") (tstamp 583790a4-ffc9-4ddd-830c-dc62e1304222))
  (pad "3" smd rect (at -6.75 -0.65) (size 1.6 1) (layers "F.Cu" "F.Paste" "F.Mask") (tstamp 53b53fda-13ab-45a9-bded-533735f04737))
  (pad "4" smd rect (at -6.75 0.62) (size 1.6 1) (layers "F.Cu" "F.Paste" "F.Mask") (tstamp 4d885227-0820-4441-9817-de91a91502ab))
  (pad "5" smd rect (at -6.75 1.89) (size 1.6 1) (layers "F.Cu" "F.Paste" "F.Mask") (tstamp 80ada51c-e76f-4186-aad1-7b33edf22323))
  (pad "6" smd rect (at -2.75 2.89 90) (size 1.6 1) (layers "F.Cu" "F.Paste" "F.Mask") (tstamp f40e67df-d9d5-4fa4-86a5-10d4c7f339ff))
  (pad "7" smd rect (at 6.75 1.89) (size 1.6 1) (layers "F.Cu" "F.Paste" "F.Mask") (tstamp 4baab721-37ea-4239-ab24-b1b226f01196))
  (pad "8" smd rect (at 6.75 0.62) (size 1.6 1) (layers "F.Cu" "F.Paste" "F.Mask") (tstamp 8cde30ea-f59c-47c7-abf3-56e679fcc165))
  (pad "9" smd rect (at 6.75 -0.65) (size 1.6 1) (layers "F.Cu" "F.Paste" "F.Mask") (tstamp ee4f1f2e-cb48-40e3-99bc-460481057bf6))
  (pad "10" smd rect (at 6.75 -1.92) (size 1.6 1) (layers "F.Cu" "F.Paste" "F.Mask") (tstamp 58bdbd5a-6874-46d1-bf89-da36033d31d8))
  (pad "11" smd rect (at 6.75 -3.19) (size 1.6 1) (layers "F.Cu" "F.Paste" "F.Mask") (tstamp 3cdb4e43-6539-4372-bcdb-e56571ded344))
  (model "${KICAD6_3DMODEL_DIR}/RF_Module.3dshapes/ST_SPBTLE.wrl"
    (offset (xyz 0 0 0))
    (scale (xyz 1 1 1))
    (rotate (xyz 0 0 0))
  )
)
