(footprint "MountingHole_2.7mm_M2.5_Pad_TopBottom" (version 20211014) (generator pcbnew)
  (layer "F.Cu")
  (tedit 56D1B4CB)
  (descr "Mounting Hole 2.7mm, M2.5")
  (tags "mounting hole 2.7mm m2.5")
  (attr exclude_from_pos_files exclude_from_bom)
  (fp_text reference "REF**" (at 0 -3.7) (layer "F.SilkS")
    (effects (font (size 1 1) (thickness 0.15)))
    (tstamp ee3f5d7d-7811-4f96-a8c8-3e5a6b691bb6)
  )
  (fp_text value "MountingHole_2.7mm_M2.5_Pad_TopBottom" (at 0 3.7) (layer "F.Fab")
    (effects (font (size 1 1) (thickness 0.15)))
    (tstamp bcb764d2-33f4-4355-b287-9a7b0233b9db)
  )
  (fp_text user "${REFERENCE}" (at 0.3 0) (layer "F.Fab")
    (effects (font (size 1 1) (thickness 0.15)))
    (tstamp 42ebdeba-07ac-4923-9625-450f4d100c3d)
  )
  (fp_circle (center 0 0) (end 2.7 0) (layer "Cmts.User") (width 0.15) (fill none) (tstamp 4ba11c29-8443-4564-946c-635e6a6d3c4b))
  (fp_circle (center 0 0) (end 2.95 0) (layer "F.CrtYd") (width 0.05) (fill none) (tstamp 29b4311e-01dd-42dc-8c55-5cc9dbb25323))
  (pad "1" connect circle (at 0 0) (size 5.4 5.4) (layers "B.Cu" "B.Mask") (tstamp 7366c877-4746-430d-869e-ad81cbdcb069))
  (pad "1" thru_hole circle (at 0 0) (size 3.1 3.1) (drill 2.7) (layers *.Cu *.Mask) (tstamp ac3b60d8-f291-43f3-827f-86bb95133d02))
  (pad "1" connect circle (at 0 0) (size 5.4 5.4) (layers "F.Cu" "F.Mask") (tstamp b5a08255-545d-4d6e-9aff-1466464e288d))
)
