(footprint "MountingHole_4.3mm_M4" (version 20211014) (generator pcbnew)
  (layer "F.Cu")
  (tedit 56D1B4CB)
  (descr "Mounting Hole 4.3mm, no annular, M4")
  (tags "mounting hole 4.3mm no annular m4")
  (attr exclude_from_pos_files exclude_from_bom)
  (fp_text reference "REF**" (at 0 -5.3) (layer "F.SilkS")
    (effects (font (size 1 1) (thickness 0.15)))
    (tstamp ce8e44e6-34a9-47da-8347-47185365a99d)
  )
  (fp_text value "MountingHole_4.3mm_M4" (at 0 5.3) (layer "F.Fab")
    (effects (font (size 1 1) (thickness 0.15)))
    (tstamp 16093128-a967-47d2-bb21-40c09e85d420)
  )
  (fp_text user "${REFERENCE}" (at 0.3 0) (layer "F.Fab")
    (effects (font (size 1 1) (thickness 0.15)))
    (tstamp 4942f351-6236-4118-907a-a6c3e87ffa3f)
  )
  (fp_circle (center 0 0) (end 4.3 0) (layer "Cmts.User") (width 0.15) (fill none) (tstamp 6fd3797d-9493-4fec-a02e-d36c4d86e333))
  (fp_circle (center 0 0) (end 4.55 0) (layer "F.CrtYd") (width 0.05) (fill none) (tstamp b09d5dec-12bb-476f-8f90-ea32fc2c5c2c))
  (pad "" np_thru_hole circle (at 0 0) (size 4.3 4.3) (drill 4.3) (layers *.Cu *.Mask) (tstamp 8e0bd25c-cee7-458c-863b-d2f72287e659))
)
