(footprint "MountingHole_5.3mm_M5_ISO7380_Pad_TopBottom" (version 20211014) (generator pcbnew)
  (layer "F.Cu")
  (tedit 56D1B4CB)
  (descr "Mounting Hole 5.3mm, M5, ISO7380")
  (tags "mounting hole 5.3mm m5 iso7380")
  (attr exclude_from_pos_files exclude_from_bom)
  (fp_text reference "REF**" (at 0 -5.75) (layer "F.SilkS")
    (effects (font (size 1 1) (thickness 0.15)))
    (tstamp ad984c08-125c-411f-8acc-85630c39c5d9)
  )
  (fp_text value "MountingHole_5.3mm_M5_ISO7380_Pad_TopBottom" (at 0 5.75) (layer "F.Fab")
    (effects (font (size 1 1) (thickness 0.15)))
    (tstamp 417cd748-7e45-4abb-b531-461dc7828cb8)
  )
  (fp_text user "${REFERENCE}" (at 0.3 0) (layer "F.Fab")
    (effects (font (size 1 1) (thickness 0.15)))
    (tstamp 91802c6b-4e70-4cf4-a410-ccad26fdcad0)
  )
  (fp_circle (center 0 0) (end 4.75 0) (layer "Cmts.User") (width 0.15) (fill none) (tstamp aed122e9-92ed-4a14-95ef-d740eb7a8621))
  (fp_circle (center 0 0) (end 5 0) (layer "F.CrtYd") (width 0.05) (fill none) (tstamp 716ea94a-c138-46c1-a5df-b918e7400a62))
  (pad "1" connect circle (at 0 0) (size 9.5 9.5) (layers "B.Cu" "B.Mask") (tstamp 8ed4a771-1331-4eb5-9f69-43dedff2e9cd))
  (pad "1" thru_hole circle (at 0 0) (size 5.7 5.7) (drill 5.3) (layers *.Cu *.Mask) (tstamp 9604d0fb-7691-4e2c-9314-372dbb2af9c5))
  (pad "1" connect circle (at 0 0) (size 9.5 9.5) (layers "F.Cu" "F.Mask") (tstamp f7cf6688-940e-42fd-8c28-46f41766bb73))
)
