(footprint "MountingHole_2.7mm_M2.5_ISO7380_Pad" (version 20211014) (generator pcbnew)
  (layer "F.Cu")
  (tedit 56D1B4CB)
  (descr "Mounting Hole 2.7mm, M2.5, ISO7380")
  (tags "mounting hole 2.7mm m2.5 iso7380")
  (attr exclude_from_pos_files exclude_from_bom)
  (fp_text reference "REF**" (at 0 -3.25) (layer "F.SilkS")
    (effects (font (size 1 1) (thickness 0.15)))
    (tstamp 9bab063a-39f0-4c8a-b526-88d96833113f)
  )
  (fp_text value "MountingHole_2.7mm_M2.5_ISO7380_Pad" (at 0 3.25) (layer "F.Fab")
    (effects (font (size 1 1) (thickness 0.15)))
    (tstamp dc5450d0-202a-442f-bc84-0445d9ff0093)
  )
  (fp_text user "${REFERENCE}" (at 0.3 0) (layer "F.Fab")
    (effects (font (size 1 1) (thickness 0.15)))
    (tstamp 2189ed0e-e2c2-449a-b6c8-4525173e5b08)
  )
  (fp_circle (center 0 0) (end 2.25 0) (layer "Cmts.User") (width 0.15) (fill none) (tstamp 5f8b9b3d-fab9-4c38-8d70-f4a7b2f7d4a9))
  (fp_circle (center 0 0) (end 2.5 0) (layer "F.CrtYd") (width 0.05) (fill none) (tstamp b317f16c-e051-4e7e-8d25-85032d31f14d))
  (pad "1" thru_hole circle (at 0 0) (size 4.5 4.5) (drill 2.7) (layers *.Cu *.Mask) (tstamp 39ffe4e3-8afa-4ef2-b169-10c449424b15))
)
