(footprint "MountingHole_2.7mm_M2.5_Pad" (version 20211014) (generator pcbnew)
  (layer "F.Cu")
  (tedit 56D1B4CB)
  (descr "Mounting Hole 2.7mm, M2.5")
  (tags "mounting hole 2.7mm m2.5")
  (attr exclude_from_pos_files exclude_from_bom)
  (fp_text reference "REF**" (at 0 -3.7) (layer "F.SilkS")
    (effects (font (size 1 1) (thickness 0.15)))
    (tstamp 66c4953d-6791-4fa9-9596-09d8320dc224)
  )
  (fp_text value "MountingHole_2.7mm_M2.5_Pad" (at 0 3.7) (layer "F.Fab")
    (effects (font (size 1 1) (thickness 0.15)))
    (tstamp 0cc0770e-cc84-4022-8c66-e6d23a90e37f)
  )
  (fp_text user "${REFERENCE}" (at 0.3 0) (layer "F.Fab")
    (effects (font (size 1 1) (thickness 0.15)))
    (tstamp 23ce3c56-8960-4407-a263-666559c7a1d2)
  )
  (fp_circle (center 0 0) (end 2.7 0) (layer "Cmts.User") (width 0.15) (fill none) (tstamp 95a66334-e11a-44f7-b64d-3f46b4869f61))
  (fp_circle (center 0 0) (end 2.95 0) (layer "F.CrtYd") (width 0.05) (fill none) (tstamp 254ac0de-6bce-4f24-b24e-97222db71050))
  (pad "1" thru_hole circle (at 0 0) (size 5.4 5.4) (drill 2.7) (layers *.Cu *.Mask) (tstamp 118174b6-1496-49a5-a032-bee4f0fc51cb))
)
