(footprint "MountingHole_6.4mm_M6_DIN965_Pad_TopOnly" (version 20211014) (generator pcbnew)
  (layer "F.Cu")
  (tedit 56D1B4CB)
  (descr "Mounting Hole 6.4mm, M6, DIN965")
  (tags "mounting hole 6.4mm m6 din965")
  (attr exclude_from_pos_files exclude_from_bom)
  (fp_text reference "REF**" (at 0 -6.5) (layer "F.SilkS")
    (effects (font (size 1 1) (thickness 0.15)))
    (tstamp af1eecef-33fa-4d8b-940a-158622f1ff63)
  )
  (fp_text value "MountingHole_6.4mm_M6_DIN965_Pad_TopOnly" (at 0 6.5) (layer "F.Fab")
    (effects (font (size 1 1) (thickness 0.15)))
    (tstamp 493f9d85-efa4-49f6-afa8-4e5c1a654ff9)
  )
  (fp_text user "${REFERENCE}" (at 0.3 0) (layer "F.Fab")
    (effects (font (size 1 1) (thickness 0.15)))
    (tstamp 8eb724c4-02b5-464a-b3a9-d48a5069885f)
  )
  (fp_circle (center 0 0) (end 5.5 0) (layer "Cmts.User") (width 0.15) (fill none) (tstamp fba4ae15-5809-4c71-81a1-5b8ae9da9838))
  (fp_circle (center 0 0) (end 5.75 0) (layer "F.CrtYd") (width 0.05) (fill none) (tstamp dcf071ed-3c45-40ef-8ecd-6b24afd627bc))
  (pad "1" thru_hole circle (at 0 0) (size 6.8 6.8) (drill 6.4) (layers *.Cu *.Mask) (tstamp 38aed319-e421-4c4c-addc-c9d0066921fd))
  (pad "1" connect circle (at 0 0) (size 11 11) (layers "F.Cu" "F.Mask") (tstamp 6baaa9c6-6995-4bf5-80fc-f50ad20815a6))
)
