(footprint "MountingHole_3.2mm_M3_Pad_TopOnly" (version 20211014) (generator pcbnew)
  (layer "F.Cu")
  (tedit 56D1B4CB)
  (descr "Mounting Hole 3.2mm, M3")
  (tags "mounting hole 3.2mm m3")
  (attr exclude_from_pos_files exclude_from_bom)
  (fp_text reference "REF**" (at 0 -4.2) (layer "F.SilkS")
    (effects (font (size 1 1) (thickness 0.15)))
    (tstamp 5decb79e-da0e-494f-a174-b2f8363411f1)
  )
  (fp_text value "MountingHole_3.2mm_M3_Pad_TopOnly" (at 0 4.2) (layer "F.Fab")
    (effects (font (size 1 1) (thickness 0.15)))
    (tstamp 4221281a-8ea7-4641-b39f-d40f9f6b7088)
  )
  (fp_text user "${REFERENCE}" (at 0.3 0) (layer "F.Fab")
    (effects (font (size 1 1) (thickness 0.15)))
    (tstamp efcbc0ee-df4b-46ea-a6b8-bbd808523f81)
  )
  (fp_circle (center 0 0) (end 3.2 0) (layer "Cmts.User") (width 0.15) (fill none) (tstamp 5a250aff-2c49-415f-a95d-7af867ab57e0))
  (fp_circle (center 0 0) (end 3.45 0) (layer "F.CrtYd") (width 0.05) (fill none) (tstamp 80b2f9c4-337d-4317-bb7a-19131d8ddf3e))
  (pad "1" connect circle (at 0 0) (size 6.4 6.4) (layers "F.Cu" "F.Mask") (tstamp 47d458a8-83e7-4ee7-9db8-24850adea451))
  (pad "1" thru_hole circle (at 0 0) (size 3.6 3.6) (drill 3.2) (layers *.Cu *.Mask) (tstamp 9a750156-880d-4759-ae32-048c06787107))
)
