(footprint "microSD_HC_Hirose_DM3D-SF" (version 20211014) (generator pcbnew)
  (layer "F.Cu")
  (tedit 5B82D16A)
  (descr "Micro SD, SMD, right-angle, push-pull (https://media.digikey.com/PDF/Data%20Sheets/Hirose%20PDFs/DM3D-SF.pdf)")
  (tags "Micro SD")
  (attr smd)
  (fp_text reference "REF**" (at -0.025 -7.625) (layer "F.SilkS")
    (effects (font (size 1 1) (thickness 0.15)))
    (tstamp 6939040e-6c3b-47d7-b52c-c6e524c20049)
  )
  (fp_text value "microSD_HC_Hirose_DM3D-SF" (at -0.025 6.975) (layer "F.Fab")
    (effects (font (size 1 1) (thickness 0.15)))
    (tstamp 0cddf564-1954-4297-9d9b-02d73346e2c6)
  )
  (fp_text user "KEEPOUT" (at -0.275 -0.525) (layer "Cmts.User")
    (effects (font (size 1 1) (thickness 0.1)))
    (tstamp 0dcea14b-d924-4e9e-98ea-5c8a3d0bafc5)
  )
  (fp_text user "KEEPOUT" (at -0.725 -4.8) (layer "Cmts.User")
    (effects (font (size 0.4 0.4) (thickness 0.06)))
    (tstamp db41573e-7a53-4815-a834-6cbaaec54c8a)
  )
  (fp_text user "${REFERENCE}" (at -0.025 1.475) (layer "F.Fab")
    (effects (font (size 1 1) (thickness 0.1)))
    (tstamp 91956743-7d6d-4bdb-b470-2bf1b10f1a3a)
  )
  (fp_line (start -6.435 -5.785) (end 4.825 -5.785) (layer "F.SilkS") (width 0.12) (tstamp 45280634-1e90-4458-b576-d3fbd7902237))
  (fp_line (start 6.325 -5.785) (end 6.435 -5.785) (layer "F.SilkS") (width 0.12) (tstamp 7c5d1d06-f529-43b9-93de-19c704c35e23))
  (fp_line (start -6.435 -1.375) (end -6.435 4.225) (layer "F.SilkS") (width 0.12) (tstamp 82cd85a6-f395-41f5-b188-ad703b3da598))
  (fp_line (start 6.435 -2.075) (end 6.435 4.225) (layer "F.SilkS") (width 0.12) (tstamp a19b8a79-8e64-4e8f-a056-00a825e2f25d))
  (fp_line (start 6.435 -5.785) (end 6.435 -3.975) (layer "F.SilkS") (width 0.12) (tstamp a2446ac8-ca21-4803-88c5-e46a835970af))
  (fp_line (start -6.435 -4.625) (end -6.435 -5.785) (layer "F.SilkS") (width 0.12) (tstamp d570c632-f37a-41a6-b396-15664654746e))
  (fp_line (start -4.925 0.475) (end 3.575 0.475) (layer "Dwgs.User") (width 0.1) (tstamp 13ea9c96-a7ee-4323-b5c8-5738e85508e2))
  (fp_line (start -4.925 -1.525) (end -4.925 0.475) (layer "Dwgs.User") (width 0.1) (tstamp 28c8ad77-6399-4fd2-862f-d72c412ae12e))
  (fp_line (start 3.075 0.475) (end 3.575 -0.975) (layer "Dwgs.User") (width 0.1) (tstamp 2eea6f62-f95d-4ce2-85aa-d11fe5764e3f))
  (fp_line (start -1.025 -5.725) (end -1.525 -3.875) (layer "Dwgs.User") (width 0.1) (tstamp 3175440e-1331-4fb4-a50b-19857cd87b90))
  (fp_line (start -4.925 -1.525) (end 3.575 -1.525) (layer "Dwgs.User") (width 0.1) (tstamp 427f86ea-be11-4d41-b251-96ea69eb3847))
  (fp_line (start 1.575 0.475) (end 2.275 -1.525) (layer "Dwgs.User") (width 0.1) (tstamp 59c1ee18-9ac5-4449-8cd9-0ceceac9e947))
  (fp_line (start 2.575 0.475) (end 3.275 -1.525) (layer "Dwgs.User") (width 0.1) (tstamp 5f64522c-c1a3-4721-b0a4-23cd235b25bf))
  (fp_line (start -1.925 -3.875) (end -1.525 -5.725) (layer "Dwgs.User") (width 0.1) (tstamp 5fe4080f-c6db-4901-9088-6f4aba108ec9))
  (fp_line (start -3.425 0.475) (end -2.725 -1.525) (layer "Dwgs.User") (width 0.1) (tstamp 6833af8d-82d6-4558-bccf-d31b638ea1f3))
  (fp_line (start -1.975 -5.725) (end -1.975 -3.875) (layer "Dwgs.User") (width 0.1) (tstamp 6d50cc26-ffc4-45a5-a144-57bffd8d73fc))
  (fp_line (start -0.925 0.475) (end -0.225 -1.525) (layer "Dwgs.User") (width 0.1) (tstamp 7567ed03-0569-49d2-a51d-bd6cdb962b27))
  (fp_line (start -1.425 0.475) (end -0.725 -1.525) (layer "Dwgs.User") (width 0.1) (tstamp 759bd5e8-20c1-4f16-bcf5-b471c949bee6))
  (fp_line (start -3.925 0.475) (end -3.225 -1.525) (layer "Dwgs.User") (width 0.1) (tstamp 76ca6153-30a6-476a-a696-2b8cd96dd321))
  (fp_line (start -3.225 -1.525) (end -2.725 -1.525) (layer "Dwgs.User") (width 0.1) (tstamp 801ecb51-f290-49c3-960a-bc9e620431b8))
  (fp_line (start -4.925 0.475) (end -4.225 -1.525) (layer "Dwgs.User") (width 0.1) (tstamp 86914339-4739-4cf6-9947-665ced66c0c6))
  (fp_line (start 0.525 -5.725) (end -1.975 -5.725) (layer "Dwgs.User") (width 0.1) (tstamp 8be0bca8-f365-40a2-8594-8d2fb61ff8c2))
  (fp_line (start 2.075 0.475) (end 2.775 -1.525) (layer "Dwgs.User") (width 0.1) (tstamp 8cb00436-5e76-4a8b-a770-318b36d8294b))
  (fp_line (start -2.925 0.475) (end -2.225 -1.525) (layer "Dwgs.User") (width 0.1) (tstamp 9b9a9c3b-8f29-4491-8be5-a099ee1ca613))
  (fp_line (start 0.525 -3.875) (end 0.525 -5.725) (layer "Dwgs.User") (width 0.1) (tstamp ad4619a7-ec12-4f7d-aa63-e0dc22eb4374))
  (fp_line (start -2.425 0.475) (end -1.725 -1.525) (layer "Dwgs.User") (width 0.1) (tstamp b5efe87a-ce5a-490d-a8ed-c7efe7755cf2))
  (fp_line (start 3.575 0.475) (end 3.575 -1.525) (layer "Dwgs.User") (width 0.1) (tstamp b9862032-1e73-4978-8f95-cbc6a8c93cf6))
  (fp_line (start -1.025 -3.875) (end -0.525 -5.725) (layer "Dwgs.User") (width 0.1) (tstamp c116d3f0-6268-493c-ba42-56559a1195df))
  (fp_line (start -0.025 -3.875) (end 0.475 -5.725) (layer "Dwgs.User") (width 0.1) (tstamp c4a78c21-ffb0-4281-afd3-153bb85a209b))
  (fp_line (start -4.225 -1.525) (end -3.725 -1.525) (layer "Dwgs.User") (width 0.1) (tstamp c5886082-eebf-4dc0-b4a3-7fa4e3dc858f))
  (fp_line (start 0.525 -3.875) (end -1.975 -3.875) (layer "Dwgs.User") (width 0.1) (tstamp d2a321b8-890d-4550-8994-f01eb319a929))
  (fp_line (start 0.075 0.475) (end 0.775 -1.525) (layer "Dwgs.User") (width 0.1) (tstamp d8782016-da01-4cbe-a0c9-5e9f60fee9e8))
  (fp_line (start -0.025 -5.725) (end -0.525 -3.875) (layer "Dwgs.User") (width 0.1) (tstamp e5eaccf2-57cd-4104-9fb6-259a920bc161))
  (fp_line (start -4.425 0.475) (end -3.725 -1.525) (layer "Dwgs.User") (width 0.1) (tstamp ea227bf9-378a-4e91-ab83-be978d814001))
  (fp_line (start 1.075 0.475) (end 1.775 -1.525) (layer "Dwgs.User") (width 0.1) (tstamp ef00cb00-d408-4c56-9255-95cf3dfb5abf))
  (fp_line (start -1.925 0.475) (end -1.225 -1.525) (layer "Dwgs.User") (width 0.1) (tstamp f4621f0a-df62-49eb-9b14-7a2ee82ec56e))
  (fp_line (start -0.425 0.475) (end 0.275 -1.525) (layer "Dwgs.User") (width 0.1) (tstamp f49c1cf3-60d4-4c9a-9810-d1bca79de13f))
  (fp_line (start 0.575 0.475) (end 1.275 -1.525) (layer "Dwgs.User") (width 0.1) (tstamp fcf63ed0-9c55-4205-bd37-378290dfb580))
  (fp_line (start 6.88 6.28) (end -6.92 6.28) (layer "F.CrtYd") (width 0.05) (tstamp 4e5b3434-b2f0-44ff-afc6-2db21b9d7df0))
  (fp_line (start -6.92 -6.72) (end 6.88 -6.72) (layer "F.CrtYd") (width 0.05) (tstamp 570337ea-8ac3-4ac6-93f4-92fc2860d6d4))
  (fp_line (start 6.88 -6.72) (end 6.88 6.28) (layer "F.CrtYd") (width 0.05) (tstamp 67ae4fbb-40ff-48f9-a40c-7b419722f47e))
  (fp_line (start -6.92 6.28) (end -6.92 -6.72) (layer "F.CrtYd") (width 0.05) (tstamp c3b6b51d-fcb7-4784-bf4d-c138ab0f2bb8))
  (fp_line (start 6.375 5.725) (end 6.375 -5.725) (layer "F.Fab") (width 0.1) (tstamp 34ce2e12-206e-4250-abbd-4264868d7c35))
  (fp_line (start -6.375 -5.725) (end 6.375 -5.725) (layer "F.Fab") (width 0.1) (tstamp 3dee5d96-611a-4152-9e79-7f896430df2d))
  (fp_line (start -6.375 5.725) (end -6.375 -5.725) (layer "F.Fab") (width 0.1) (tstamp 488b2d97-bfa3-4b55-901b-357d118dd811))
  (fp_line (start 5.475 9.575) (end 5.475 5.725) (layer "F.Fab") (width 0.1) (tstamp 6915929f-7504-43ff-ad50-b472173824cd))
  (fp_line (start -5.525 5.725) (end -5.525 9.575) (layer "F.Fab") (width 0.1) (tstamp 6af93cf4-257b-4989-b0e1-91cf31f3456f))
  (fp_line (start -5.275 5.475) (end -5.275 4.425) (layer "F.Fab") (width 0.1) (tstamp 7b36c8cb-8a34-47ab-9960-1ffac31cca5f))
  (fp_line (start 4.175 -5.725) (end 4.175 -6.975) (layer "F.Fab") (width 0.1) (tstamp 9325229f-ca2f-462d-a646-0bb7c785767f))
  (fp_line (start 5.475 5.725) (end 6.375 5.725) (layer "F.Fab") (width 0.1) (tstamp b89db14b-bca4-4446-8a43-afbb1e86a326))
  (fp_line (start -5.525 -5.725) (end -5.525 -6.975) (layer "F.Fab") (width 0.1) (tstamp c5fbb5b8-94af-45c1-ab53-6d3a15897f01))
  (fp_line (start -6.375 5.725) (end -5.525 5.725) (layer "F.Fab") (width 0.1) (tstamp de32c024-306c-43ef-a61e-be2608270529))
  (fp_line (start 5.225 5.475) (end 5.225 4.425) (layer "F.Fab") (width 0.1) (tstamp e346b415-4df1-4bda-8427-1aaf71953d38))
  (fp_line (start -5.025 10.075) (end 4.975 10.075) (layer "F.Fab") (width 0.1) (tstamp eebd186e-0aea-4cea-abc1-2c80e92ba9fa))
  (fp_line (start -5.525 -6.975) (end 4.175 -6.975) (layer "F.Fab") (width 0.1) (tstamp f2a4e2fb-3391-4471-9a8e-42cfa4c30976))
  (fp_line (start -4.775 3.925) (end 4.725 3.925) (layer "F.Fab") (width 0.1) (tstamp f91c97ad-fd6b-4150-8cc7-542f8595a344))
  (fp_arc (start 5.475 5.725) (mid 5.298223 5.651777) (end 5.225 5.475) (layer "F.Fab") (width 0.1) (tstamp 01933030-3c94-4179-bebe-cb31ab751e57))
  (fp_arc (start 5.475 9.575) (mid 5.328553 9.928553) (end 4.975 10.075) (layer "F.Fab") (width 0.1) (tstamp 3656c439-56e5-47b5-9082-851626da609c))
  (fp_arc (start -5.025 10.075) (mid -5.378553 9.928553) (end -5.525 9.575) (layer "F.Fab") (width 0.1) (tstamp 5a1b0f89-e544-4c2a-87eb-3b556c246c3a))
  (fp_arc (start -5.275 5.475) (mid -5.348223 5.651777) (end -5.525 5.725) (layer "F.Fab") (width 0.1) (tstamp 9cbe4be1-c8ff-4147-85f5-6388b1607b3b))
  (fp_arc (start 4.725 3.925) (mid 5.078553 4.071447) (end 5.225 4.425) (layer "F.Fab") (width 0.1) (tstamp c0185666-bc92-435e-b3c0-1ea1285d7778))
  (fp_arc (start -5.275 4.425) (mid -5.128553 4.071447) (end -4.775 3.925) (layer "F.Fab") (width 0.1) (tstamp e4b234c7-af73-4817-beb5-3f2a0cb497f5))
  (pad "1" smd rect (at 3.175 5.35) (size 0.7 1.75) (layers "F.Cu" "F.Paste" "F.Mask") (tstamp e7f57f51-03e3-4233-9fa3-ba3507942205))
  (pad "2" smd rect (at 2.075 5.35) (size 0.7 1.75) (layers "F.Cu" "F.Paste" "F.Mask") (tstamp ce592cf1-b9f7-4699-89a2-24a186f5fe7d))
  (pad "3" smd rect (at 0.975 5.35) (size 0.7 1.75) (layers "F.Cu" "F.Paste" "F.Mask") (tstamp 705f730b-7cff-40fc-9cee-22ceca3c5eeb))
  (pad "4" smd rect (at -0.125 5.35) (size 0.7 1.75) (layers "F.Cu" "F.Paste" "F.Mask") (tstamp 25b3c9a2-cd58-41b9-b479-72909cc024f3))
  (pad "5" smd rect (at -1.225 5.35) (size 0.7 1.75) (layers "F.Cu" "F.Paste" "F.Mask") (tstamp 7c0c3902-e8bb-47d8-8da3-9b9a47da86ea))
  (pad "6" smd rect (at -2.325 5.35) (size 0.7 1.75) (layers "F.Cu" "F.Paste" "F.Mask") (tstamp 2ef7fe8c-2b88-42b5-b6c5-874a2227583e))
  (pad "7" smd rect (at -3.425 5.35) (size 0.7 1.75) (layers "F.Cu" "F.Paste" "F.Mask") (tstamp 771a4b3e-4747-4f00-93a2-a8d94fb8cc2e))
  (pad "8" smd rect (at -4.525 5.35) (size 0.7 1.75) (layers "F.Cu" "F.Paste" "F.Mask") (tstamp 0fc54711-ebe4-480d-880c-76ca9afa8122))
  (pad "9" smd rect (at -5.65 -3.875) (size 1.45 1) (layers "F.Cu" "F.Paste" "F.Mask") (tstamp 84b2b642-6df2-4fe0-879c-2496def3789b))
  (pad "10" smd rect (at 5.575 -5.45) (size 1 1.55) (layers "F.Cu" "F.Paste" "F.Mask") (tstamp f21ea714-6a86-4b02-8ae2-6c576d7e4b9a))
  (pad "11" smd rect (at -5.725 5.225) (size 1.3 1.5) (layers "F.Cu" "F.Paste" "F.Mask") (tstamp 57a0899f-d8a1-4860-a9bd-5713858cd320))
  (pad "11" smd rect (at -5.975 -2.375) (size 0.8 1.5) (layers "F.Cu" "F.Paste" "F.Mask") (tstamp a67da26e-65ad-496b-8a24-03c84829e831))
  (pad "11" smd rect (at 5.625 5.225) (size 1.5 1.5) (layers "F.Cu" "F.Paste" "F.Mask") (tstamp c85d5f48-e062-4fa8-8c05-75594eebf77c))
  (pad "11" smd rect (at 5.975 -3.025) (size 0.8 1.4) (layers "F.Cu" "F.Paste" "F.Mask") (tstamp f7f2b870-ce17-48ea-92fd-6f9a2dd57d5a))
  (model "${KICAD6_3DMODEL_DIR}/Connector_Card.3dshapes/microSD_HC_Hirose_DM3D-SF.wrl"
    (offset (xyz 0 0 0))
    (scale (xyz 1 1 1))
    (rotate (xyz 0 0 0))
  )
)
